{
	"answers": [
		{"alternativesIndex": [2]},
		{"alternativesIndex": [0]},
		{"alternativesIndex": [3]},
		{"alternativesIndex": [1]},
		{"alternativesIndex": [1, 2, 3]},
		{"alternativesIndex": [0, 1]},
		{"alternativesIndex": [0, 1]},
		{"alternativesIndex": [0, 1, 2]}
	]
}